%YAML 1.1
%TAG !u! tag:unity3d.com,2011:
--- !u!1045 &1
EditorBuildSettings:
  m_ObjectHideFlags: 0
  serializedVersion: 2
  m_Scenes:
  - enabled: 1
    path: Assets/Scenes/Maps/Main_Menu.unity
    guid: 6e0bbba93dcd5b942aa7a17d44efafed
  - enabled: 1
    path: Assets/Scenes/Maps/Goul_Cove.unity
    guid: c77108d1796229c40a0910e79f95e4af
  - enabled: 0
    path: 
    guid: 00000000000000000000000000000000
  - enabled: 0
    path: Assets/Scenes/WhiteBox/White_Box.unity
    guid: 99c9720ab356a0642a771bea13969a05
  - enabled: 0
    path: Assets/Scenes/WhiteBox/Multiplayer_Test.unity
    guid: c5447292300744b449ff726aed748b24
  - enabled: 1
    path: Assets/Scenes/Maps/Goul_Cove_Sandbox.unity
    guid: 13fd4334a385a104192cd23c96d209b6
  m_configObjects: {}
